980,0,0,0,0,0,0,0,0,0
1135,0,0,0,0,0,0,0,0,0
1032,0,0,0,0,0,0,0,0,0
1010,0,0,0,0,0,0,0,0,0
982,0,0,0,0,0,0,0,0,0
892,0,0,0,0,0,0,0,0,0
958,0,0,0,0,0,0,0,0,0
1028,0,0,0,0,0,0,0,0,0
974,0,0,0,0,0,0,0,0,0
1009,0,0,0,0,0,0,0,0,0
